// This code was created by pygmsh vunknown.
p0 = newp;
Point(p0) = {0, 0, 0, 1.0};
p1 = newp;
Point(p1) = {15.0, 0, 0, 1.0};
p2 = newp;
Point(p2) = {15.0, 10.0, 0, 1.0};
p3 = newp;
Point(p3) = {0, 10.0, 0, 1.0};
p4 = newp;
Point(p4) = {67.0, 0, 0, 1.0};
p5 = newp;
Point(p5) = {37.0, 10.0, 0, 1.0};
l0 = newl;
Line(l0) = {p0, p1};
l1 = newl;
Line(l1) = {p1, p2};
l2 = newl;
Line(l2) = {p2, p3};
l3 = newl;
Line(l3) = {p3, p0};
l4 = newl;
Line(l4) = {p1, p4};
l5 = newl;
Line(l5) = {p4, p5};
l6 = newl;
Line(l6) = {p5, p2};
ll0 = newll;
Line Loop(ll0) = {l0, l1, l2, l3};
ll1 = newll;
Line Loop(ll1) = {l4, l5, l6, -l1};
